{"include_total": true, "limit": 100, "records_format": "objects", "resource_id": "b00e485a-8214-43cb-aaf9-55b9dc64b747", "total_estimation_threshold": null, "records": [{"_id":11487,"CIVIC_CENTRE":"ET","DEATH_LICENSES":69,"PLACE_OF_DEATH":"Outside City Limits","TIME_PERIOD":"2011-01"},{"_id":11488,"CIVIC_CENTRE":"ET","DEATH_LICENSES":341,"PLACE_OF_DEATH":"Toronto","TIME_PERIOD":"2011-01"},{"_id":11489,"CIVIC_CENTRE":"NY","DEATH_LICENSES":141,"PLACE_OF_DEATH":"Outside City Limits","TIME_PERIOD":"2011-01"},{"_id":11490,"CIVIC_CENTRE":"NY","DEATH_LICENSES":540,"PLACE_OF_DEATH":"Toronto","TIME_PERIOD":"2011-01"},{"_id":11491,"CIVIC_CENTRE":"SC","DEATH_LICENSES":129,"PLACE_OF_DEATH":"Outside City Limits","TIME_PERIOD":"2011-01"},{"_id":11492,"CIVIC_CENTRE":"SC","DEATH_LICENSES":545,"PLACE_OF_DEATH":"Toronto","TIME_PERIOD":"2011-01"},{"_id":11493,"CIVIC_CENTRE":"TO","DEATH_LICENSES":297,"PLACE_OF_DEATH":"Toronto","TIME_PERIOD":"2011-01"},{"_id":11494,"CIVIC_CENTRE":"ET","DEATH_LICENSES":83,"PLACE_OF_DEATH":"Outside City Limits","TIME_PERIOD":"2011-02"},{"_id":11495,"CIVIC_CENTRE":"ET","DEATH_LICENSES":224,"PLACE_OF_DEATH":"Toronto","TIME_PERIOD":"2011-02"},{"_id":11496,"CIVIC_CENTRE":"NY","DEATH_LICENSES":81,"PLACE_OF_DEATH":"Outside City Limits","TIME_PERIOD":"2011-02"},{"_id":11497,"CIVIC_CENTRE":"NY","DEATH_LICENSES":307,"PLACE_OF_DEATH":"Toronto","TIME_PERIOD":"2011-02"},{"_id":11498,"CIVIC_CENTRE":"SC","DEATH_LICENSES":68,"PLACE_OF_DEATH":"Outside City Limits","TIME_PERIOD":"2011-02"},{"_id":11499,"CIVIC_CENTRE":"SC","DEATH_LICENSES":339,"PLACE_OF_DEATH":"Toronto","TIME_PERIOD":"2011-02"},{"_id":11500,"CIVIC_CENTRE":"TO","DEATH_LICENSES":223,"PLACE_OF_DEATH":"Toronto","TIME_PERIOD":"2011-02"},{"_id":11501,"CIVIC_CENTRE":"ET","DEATH_LICENSES":116,"PLACE_OF_DEATH":"Outside City Limits","TIME_PERIOD":"2011-03"},{"_id":11502,"CIVIC_CENTRE":"ET","DEATH_LICENSES":233,"PLACE_OF_DEATH":"Toronto","TIME_PERIOD":"2011-03"},{"_id":11503,"CIVIC_CENTRE":"NY","DEATH_LICENSES":118,"PLACE_OF_DEATH":"Outside City Limits","TIME_PERIOD":"2011-03"},{"_id":11504,"CIVIC_CENTRE":"NY","DEATH_LICENSES":537,"PLACE_OF_DEATH":"Toronto","TIME_PERIOD":"2011-03"},{"_id":11505,"CIVIC_CENTRE":"SC","DEATH_LICENSES":117,"PLACE_OF_DEATH":"Outside City Limits","TIME_PERIOD":"2011-03"},{"_id":11506,"CIVIC_CENTRE":"SC","DEATH_LICENSES":283,"PLACE_OF_DEATH":"Toronto","TIME_PERIOD":"2011-03"},{"_id":11507,"CIVIC_CENTRE":"TO","DEATH_LICENSES":185,"PLACE_OF_DEATH":"Toronto","TIME_PERIOD":"2011-03"},{"_id":11508,"CIVIC_CENTRE":"ET","DEATH_LICENSES":83,"PLACE_OF_DEATH":"Outside City Limits","TIME_PERIOD":"2011-04"},{"_id":11509,"CIVIC_CENTRE":"ET","DEATH_LICENSES":290,"PLACE_OF_DEATH":"Toronto","TIME_PERIOD":"2011-04"},{"_id":11510,"CIVIC_CENTRE":"NY","DEATH_LICENSES":87,"PLACE_OF_DEATH":"Outside City Limits","TIME_PERIOD":"2011-04"},{"_id":11511,"CIVIC_CENTRE":"NY","DEATH_LICENSES":553,"PLACE_OF_DEATH":"Toronto","TIME_PERIOD":"2011-04"},{"_id":11512,"CIVIC_CENTRE":"SC","DEATH_LICENSES":85,"PLACE_OF_DEATH":"Outside City Limits","TIME_PERIOD":"2011-04"},{"_id":11513,"CIVIC_CENTRE":"SC","DEATH_LICENSES":372,"PLACE_OF_DEATH":"Toronto","TIME_PERIOD":"2011-04"},{"_id":11514,"CIVIC_CENTRE":"TO","DEATH_LICENSES":42,"PLACE_OF_DEATH":"Toronto","TIME_PERIOD":"2011-04"},{"_id":11515,"CIVIC_CENTRE":"ET","DEATH_LICENSES":57,"PLACE_OF_DEATH":"Outside City Limits","TIME_PERIOD":"2011-05"},{"_id":11516,"CIVIC_CENTRE":"ET","DEATH_LICENSES":176,"PLACE_OF_DEATH":"Toronto","TIME_PERIOD":"2011-05"},{"_id":11517,"CIVIC_CENTRE":"NY","DEATH_LICENSES":92,"PLACE_OF_DEATH":"Outside City Limits","TIME_PERIOD":"2011-05"},{"_id":11518,"CIVIC_CENTRE":"NY","DEATH_LICENSES":480,"PLACE_OF_DEATH":"Toronto","TIME_PERIOD":"2011-05"},{"_id":11519,"CIVIC_CENTRE":"SC","DEATH_LICENSES":51,"PLACE_OF_DEATH":"Outside City Limits","TIME_PERIOD":"2011-05"},{"_id":11520,"CIVIC_CENTRE":"SC","DEATH_LICENSES":253,"PLACE_OF_DEATH":"Toronto","TIME_PERIOD":"2011-05"},{"_id":11521,"CIVIC_CENTRE":"ET","DEATH_LICENSES":30,"PLACE_OF_DEATH":"Outside City Limits","TIME_PERIOD":"2011-06"},{"_id":11522,"CIVIC_CENTRE":"ET","DEATH_LICENSES":239,"PLACE_OF_DEATH":"Toronto","TIME_PERIOD":"2011-06"},{"_id":11523,"CIVIC_CENTRE":"NY","DEATH_LICENSES":107,"PLACE_OF_DEATH":"Outside City Limits","TIME_PERIOD":"2011-06"},{"_id":11524,"CIVIC_CENTRE":"NY","DEATH_LICENSES":479,"PLACE_OF_DEATH":"Toronto","TIME_PERIOD":"2011-06"},{"_id":11525,"CIVIC_CENTRE":"SC","DEATH_LICENSES":84,"PLACE_OF_DEATH":"Outside City Limits","TIME_PERIOD":"2011-06"},{"_id":11526,"CIVIC_CENTRE":"SC","DEATH_LICENSES":518,"PLACE_OF_DEATH":"Toronto","TIME_PERIOD":"2011-06"},{"_id":11527,"CIVIC_CENTRE":"ET","DEATH_LICENSES":40,"PLACE_OF_DEATH":"Outside City Limits","TIME_PERIOD":"2011-07"},{"_id":11528,"CIVIC_CENTRE":"ET","DEATH_LICENSES":317,"PLACE_OF_DEATH":"Toronto","TIME_PERIOD":"2011-07"},{"_id":11529,"CIVIC_CENTRE":"NY","DEATH_LICENSES":50,"PLACE_OF_DEATH":"Outside City Limits","TIME_PERIOD":"2011-07"},{"_id":11530,"CIVIC_CENTRE":"NY","DEATH_LICENSES":315,"PLACE_OF_DEATH":"Toronto","TIME_PERIOD":"2011-07"},{"_id":11531,"CIVIC_CENTRE":"SC","DEATH_LICENSES":43,"PLACE_OF_DEATH":"Outside City Limits","TIME_PERIOD":"2011-07"},{"_id":11532,"CIVIC_CENTRE":"SC","DEATH_LICENSES":312,"PLACE_OF_DEATH":"Toronto","TIME_PERIOD":"2011-07"},{"_id":11533,"CIVIC_CENTRE":"TO","DEATH_LICENSES":13,"PLACE_OF_DEATH":"Outside City Limits","TIME_PERIOD":"2011-07"},{"_id":11534,"CIVIC_CENTRE":"TO","DEATH_LICENSES":51,"PLACE_OF_DEATH":"Toronto","TIME_PERIOD":"2011-07"},{"_id":11535,"CIVIC_CENTRE":"ET","DEATH_LICENSES":169,"PLACE_OF_DEATH":"Outside City Limits","TIME_PERIOD":"2011-08"},{"_id":11536,"CIVIC_CENTRE":"ET","DEATH_LICENSES":165,"PLACE_OF_DEATH":"Toronto","TIME_PERIOD":"2011-08"},{"_id":11537,"CIVIC_CENTRE":"NY","DEATH_LICENSES":117,"PLACE_OF_DEATH":"Outside City Limits","TIME_PERIOD":"2011-08"},{"_id":11538,"CIVIC_CENTRE":"NY","DEATH_LICENSES":389,"PLACE_OF_DEATH":"Toronto","TIME_PERIOD":"2011-08"},{"_id":11539,"CIVIC_CENTRE":"SC","DEATH_LICENSES":93,"PLACE_OF_DEATH":"Outside City Limits","TIME_PERIOD":"2011-08"},{"_id":11540,"CIVIC_CENTRE":"SC","DEATH_LICENSES":320,"PLACE_OF_DEATH":"Toronto","TIME_PERIOD":"2011-08"},{"_id":11541,"CIVIC_CENTRE":"TO","DEATH_LICENSES":4,"PLACE_OF_DEATH":"Outside City Limits","TIME_PERIOD":"2011-08"},{"_id":11542,"CIVIC_CENTRE":"TO","DEATH_LICENSES":273,"PLACE_OF_DEATH":"Toronto","TIME_PERIOD":"2011-08"},{"_id":11543,"CIVIC_CENTRE":"ET","DEATH_LICENSES":74,"PLACE_OF_DEATH":"Outside City Limits","TIME_PERIOD":"2011-09"},{"_id":11544,"CIVIC_CENTRE":"ET","DEATH_LICENSES":176,"PLACE_OF_DEATH":"Toronto","TIME_PERIOD":"2011-09"},{"_id":11545,"CIVIC_CENTRE":"NY","DEATH_LICENSES":133,"PLACE_OF_DEATH":"Outside City Limits","TIME_PERIOD":"2011-09"},{"_id":11546,"CIVIC_CENTRE":"NY","DEATH_LICENSES":610,"PLACE_OF_DEATH":"Toronto","TIME_PERIOD":"2011-09"},{"_id":11547,"CIVIC_CENTRE":"SC","DEATH_LICENSES":58,"PLACE_OF_DEATH":"Outside City Limits","TIME_PERIOD":"2011-09"},{"_id":11548,"CIVIC_CENTRE":"SC","DEATH_LICENSES":394,"PLACE_OF_DEATH":"Toronto","TIME_PERIOD":"2011-09"},{"_id":11549,"CIVIC_CENTRE":"ET","DEATH_LICENSES":85,"PLACE_OF_DEATH":"Outside City Limits","TIME_PERIOD":"2011-10"},{"_id":11550,"CIVIC_CENTRE":"ET","DEATH_LICENSES":245,"PLACE_OF_DEATH":"Toronto","TIME_PERIOD":"2011-10"},{"_id":11551,"CIVIC_CENTRE":"NY","DEATH_LICENSES":123,"PLACE_OF_DEATH":"Outside City Limits","TIME_PERIOD":"2011-10"},{"_id":11552,"CIVIC_CENTRE":"NY","DEATH_LICENSES":498,"PLACE_OF_DEATH":"Toronto","TIME_PERIOD":"2011-10"},{"_id":11553,"CIVIC_CENTRE":"SC","DEATH_LICENSES":57,"PLACE_OF_DEATH":"Outside City Limits","TIME_PERIOD":"2011-10"},{"_id":11554,"CIVIC_CENTRE":"SC","DEATH_LICENSES":492,"PLACE_OF_DEATH":"Toronto","TIME_PERIOD":"2011-10"},{"_id":11555,"CIVIC_CENTRE":"TO","DEATH_LICENSES":5,"PLACE_OF_DEATH":"Toronto","TIME_PERIOD":"2011-10"},{"_id":11556,"CIVIC_CENTRE":"ET","DEATH_LICENSES":70,"PLACE_OF_DEATH":"Outside City Limits","TIME_PERIOD":"2011-11"},{"_id":11557,"CIVIC_CENTRE":"ET","DEATH_LICENSES":250,"PLACE_OF_DEATH":"Toronto","TIME_PERIOD":"2011-11"},{"_id":11558,"CIVIC_CENTRE":"NY","DEATH_LICENSES":104,"PLACE_OF_DEATH":"Outside City Limits","TIME_PERIOD":"2011-11"},{"_id":11559,"CIVIC_CENTRE":"NY","DEATH_LICENSES":458,"PLACE_OF_DEATH":"Toronto","TIME_PERIOD":"2011-11"},{"_id":11560,"CIVIC_CENTRE":"SC","DEATH_LICENSES":73,"PLACE_OF_DEATH":"Outside City Limits","TIME_PERIOD":"2011-11"},{"_id":11561,"CIVIC_CENTRE":"SC","DEATH_LICENSES":378,"PLACE_OF_DEATH":"Toronto","TIME_PERIOD":"2011-11"},{"_id":11562,"CIVIC_CENTRE":"ET","DEATH_LICENSES":68,"PLACE_OF_DEATH":"Outside City Limits","TIME_PERIOD":"2011-12"},{"_id":11563,"CIVIC_CENTRE":"ET","DEATH_LICENSES":174,"PLACE_OF_DEATH":"Toronto","TIME_PERIOD":"2011-12"},{"_id":11564,"CIVIC_CENTRE":"NY","DEATH_LICENSES":110,"PLACE_OF_DEATH":"Outside City Limits","TIME_PERIOD":"2011-12"},{"_id":11565,"CIVIC_CENTRE":"NY","DEATH_LICENSES":420,"PLACE_OF_DEATH":"Toronto","TIME_PERIOD":"2011-12"},{"_id":11566,"CIVIC_CENTRE":"SC","DEATH_LICENSES":94,"PLACE_OF_DEATH":"Outside City Limits","TIME_PERIOD":"2011-12"},{"_id":11567,"CIVIC_CENTRE":"SC","DEATH_LICENSES":456,"PLACE_OF_DEATH":"Toronto","TIME_PERIOD":"2011-12"},{"_id":11568,"CIVIC_CENTRE":"ET","DEATH_LICENSES":127,"PLACE_OF_DEATH":"Outside City Limits","TIME_PERIOD":"2012-01"},{"_id":11569,"CIVIC_CENTRE":"ET","DEATH_LICENSES":396,"PLACE_OF_DEATH":"Toronto","TIME_PERIOD":"2012-01"},{"_id":11570,"CIVIC_CENTRE":"NY","DEATH_LICENSES":81,"PLACE_OF_DEATH":"Outside City Limits","TIME_PERIOD":"2012-01"},{"_id":11571,"CIVIC_CENTRE":"NY","DEATH_LICENSES":424,"PLACE_OF_DEATH":"Toronto","TIME_PERIOD":"2012-01"},{"_id":11572,"CIVIC_CENTRE":"SC","DEATH_LICENSES":47,"PLACE_OF_DEATH":"Outside City Limits","TIME_PERIOD":"2012-01"},{"_id":11573,"CIVIC_CENTRE":"SC","DEATH_LICENSES":432,"PLACE_OF_DEATH":"Toronto","TIME_PERIOD":"2012-01"},{"_id":11574,"CIVIC_CENTRE":"TO","DEATH_LICENSES":97,"PLACE_OF_DEATH":"Toronto","TIME_PERIOD":"2012-01"},{"_id":11575,"CIVIC_CENTRE":"ET","DEATH_LICENSES":58,"PLACE_OF_DEATH":"Outside City Limits","TIME_PERIOD":"2012-02"},{"_id":11576,"CIVIC_CENTRE":"ET","DEATH_LICENSES":362,"PLACE_OF_DEATH":"Toronto","TIME_PERIOD":"2012-02"},{"_id":11577,"CIVIC_CENTRE":"NY","DEATH_LICENSES":62,"PLACE_OF_DEATH":"Outside City Limits","TIME_PERIOD":"2012-02"},{"_id":11578,"CIVIC_CENTRE":"NY","DEATH_LICENSES":304,"PLACE_OF_DEATH":"Toronto","TIME_PERIOD":"2012-02"},{"_id":11579,"CIVIC_CENTRE":"SC","DEATH_LICENSES":137,"PLACE_OF_DEATH":"Outside City Limits","TIME_PERIOD":"2012-02"},{"_id":11580,"CIVIC_CENTRE":"SC","DEATH_LICENSES":508,"PLACE_OF_DEATH":"Toronto","TIME_PERIOD":"2012-02"},{"_id":11581,"CIVIC_CENTRE":"TO","DEATH_LICENSES":12,"PLACE_OF_DEATH":"Toronto","TIME_PERIOD":"2012-02"},{"_id":11582,"CIVIC_CENTRE":"ET","DEATH_LICENSES":179,"PLACE_OF_DEATH":"Outside City Limits","TIME_PERIOD":"2012-03"},{"_id":11583,"CIVIC_CENTRE":"ET","DEATH_LICENSES":493,"PLACE_OF_DEATH":"Toronto","TIME_PERIOD":"2012-03"},{"_id":11584,"CIVIC_CENTRE":"NY","DEATH_LICENSES":39,"PLACE_OF_DEATH":"Outside City Limits","TIME_PERIOD":"2012-03"},{"_id":11585,"CIVIC_CENTRE":"NY","DEATH_LICENSES":271,"PLACE_OF_DEATH":"Toronto","TIME_PERIOD":"2012-03"},{"_id":11586,"CIVIC_CENTRE":"SC","DEATH_LICENSES":75,"PLACE_OF_DEATH":"Outside City Limits","TIME_PERIOD":"2012-03"}], "fields": [{"id": "_id", "type": "int"}, {"id": "CIVIC_CENTRE", "type": "text", "info": {"notes": "Civic centre code", "label": ""}}, {"id": "DEATH_LICENSES", "type": "numeric", "info": {"notes": "Number of deaths registered in the month", "label": ""}}, {"id": "PLACE_OF_DEATH", "type": "text", "info": {"notes": "Place where death occurred", "label": ""}}, {"id": "TIME_PERIOD", "type": "text", "info": {"notes": "Month death registered", "label": ""}}], "_links": {"start": "/api/3/action/datastore_search?id=b00e485a-8214-43cb-aaf9-55b9dc64b747", "next": "/api/3/action/datastore_search?id=b00e485a-8214-43cb-aaf9-55b9dc64b747&offset=100"}, "total": 865, "total_was_estimated": false}